0206450101=27480.5,23360.491,1000|22280.505,25520.491,2000
0206450201=28920.5,27160.5,700|30840.5,24640.5,2000
_0206450301=28960.5,27200.5,1000|26240.5,24400.5,3000
_0206450401=27320.5,23760.5,1000|22480.5,26400.5,3000
0206450501=27327.167,23460.5,700|24493.833,25560.5,2000
0206450601=27120.5,23520.5,700|25600.5,26560.5,2000
